[gd_scene load_steps=5 format=2]

[ext_resource path="res://Main.cs" type="Script" id=1]
[ext_resource path="res://Player.tscn" type="PackedScene" id=2]
[ext_resource path="res://Mob.tscn" type="PackedScene" id=3]

[sub_resource type="Curve2D" id=1]
_data = {
"points": PoolVector2Array( 0, 0, 0, 0, 0, 0, 0, 0, 0, 0, 480, 0, 0, 0, 0, 0, 480, 720, 0, 0, 0, 0, 0, 720, 0, 0, 0, 0, 0, 0 )
}

[node name="Main" type="Node"]
script = ExtResource( 1 )
MobScene = ExtResource( 3 )

[node name="Player" parent="." instance=ExtResource( 2 )]

[node name="MobTimer" type="Timer" parent="."]
wait_time = 0.5

[node name="ScoreTimer" type="Timer" parent="."]

[node name="StartTimer" type="Timer" parent="."]
wait_time = 2.0
one_shot = true

[node name="StartPosition" type="Position2D" parent="."]
position = Vector2( 240, 450 )

[node name="MobPath" type="Path2D" parent="."]
curve = SubResource( 1 )

[node name="MobSpawnLocation" type="PathFollow2D" parent="MobPath"]

[connection signal="Hit" from="Player" to="." method="GameOver"]
[connection signal="body_entered" from="Player" to="Player" method="OnPlayerBodyEntered"]
[connection signal="timeout" from="MobTimer" to="." method="OnMobTimerTimeout"]
[connection signal="timeout" from="ScoreTimer" to="." method="OnScoreTimerTimeout"]
[connection signal="timeout" from="StartTimer" to="." method="OnStartTimerTimeout"]
